[2016-12-23 17:19:01.661] [INFO] results - CASE PASSED : userAuthentication.login
[2016-12-23 17:19:04.849] [INFO] results - CASE PASSED : sessionInitialize.init
[2016-12-23 17:19:06.894] [INFO] results - CASE PASSED : hrmEntity-/api/hrmentity/list/retrieve -> ActivityCategory
[2016-12-23 17:19:08.910] [INFO] results - CASE PASSED : hrmEntity-/api/hrmentity/list/retrieve -> ActivitySubCategory
[2016-12-23 17:19:10.910] [INFO] results - CASE PASSED : hrmEntity-/api/hrmentity/list/retrieve -> CampaignType
[2016-12-23 17:19:13.082] [INFO] results - CASE PASSED : hrmEntity-/api/hrmentity/list/retrieve -> CompetitiveLab
[2016-12-23 17:19:15.425] [INFO] results - CASE PASSED : hrmEntity-/api/hrmentity/list/retrieve -> ContactType
[2016-12-23 17:19:17.537] [INFO] results - CASE PASSED : hrmEntity-/api/hrmentity/list/retrieve -> CorrectiveAction
[2016-12-23 17:19:19.552] [INFO] results - CASE PASSED : hrmEntity-/api/hrmentity/list/retrieve -> ElectronicMedicalRecord
[2016-12-23 17:19:21.583] [INFO] results - CASE PASSED : hrmEntity-/api/hrmentity/list/retrieve -> OpportunityStage
[2016-12-23 17:19:23.593] [INFO] results - CASE PASSED : hrmEntity-/api/hrmentity/list/retrieve -> OpportunityType
[2016-12-23 17:19:25.573] [INFO] results - CASE PASSED : hrmEntity-/api/hrmentity/list/retrieve -> OrganizationType
[2016-12-23 17:19:27.628] [INFO] results - CASE PASSED : hrmEntity-/api/hrmentity/list/retrieve -> RootCause
[2016-12-23 17:19:29.550] [INFO] results - CASE PASSED : hrmEntity-/api/hrmentity/list/retrieve -> Specialty
[2016-12-23 17:19:31.586] [INFO] results - CASE PASSED : hrmEntity-/api/hrmentity/activitystatus/list/retrieve
[2016-12-23 17:19:33.554] [INFO] results - CASE PASSED : hrmEntity-/api/activity/priority/list
[2016-12-23 17:19:35.742] [INFO] results - CASE PASSED : search.retrieveViewId -> AccessControlTree
[2016-12-23 17:19:37.967] [INFO] results - CASE PASSED : search.retrieveViewId -> Campaign
[2016-12-23 17:19:40.251] [INFO] results - CASE PASSED : search.retrieveViewId -> Message
[2016-12-23 17:19:42.577] [INFO] results - CASE PASSED : search.retrieveViewId -> Notification
[2016-12-23 17:19:44.952] [INFO] results - CASE PASSED : search.retrieveViewId -> OrganizationActivities
[2016-12-23 17:19:46.937] [INFO] results - CASE PASSED : interfaces-/api/admin/interfaces/settings/list
[2016-12-23 17:19:49.876] [INFO] results - CASE PASSED : notification-/api/customlist/results Notifications CustomList
[2016-12-23 17:19:52.201] [INFO] results - CASE PASSED : accessControl-/api/customlist/results AccessControlTree CustomList
[2016-12-23 17:19:54.385] [INFO] results - CASE PASSED : accessControl-/api/admin/uac/tree/retrieve
[2016-12-23 17:19:56.705] [INFO] results - CASE PASSED : organization-/api/organization/save
[2016-12-23 17:19:58.795] [INFO] results - CASE PASSED : organization-/api/organization/retrieve
[2016-12-23 17:20:04.045] [INFO] results - CASE PASSED : organization-/api/customlist/results - Org Activities CustomList
[2016-12-23 17:20:06.425] [INFO] results - CASE PASSED : case-/api/case/retrieve
[2016-12-23 17:20:08.899] [INFO] results - CASE PASSED : task-/api/task/retrieve
[2016-12-23 17:20:11.954] [INFO] results - CASE PASSED : memo-/api/memo/retrieve
[2016-12-23 17:20:14.050] [INFO] results - CASE PASSED : organization-/api/organization/retrieve - data validation
[2016-12-23 17:20:16.472] [INFO] results - CASE PASSED : campaign-/api/customlist/results
[2016-12-23 17:20:18.738] [INFO] results - CASE PASSED : contact-/api/contact/save-Contact -> Contact
[2016-12-23 17:20:20.793] [INFO] results - CASE PASSED : contact-/api/contact/retrieve-Contact -> Contact
[2016-12-23 17:20:23.049] [INFO] results - CASE PASSED : contact-/api/contact/save-Provider -> Provider
[2016-12-23 17:20:25.175] [INFO] results - CASE PASSED : contact-/api/contact/retrieve-Provider -> Provider
[2016-12-23 17:20:27.420] [INFO] results - CASE PASSED : campaign-/api/campaign/save
[2016-12-23 17:20:29.873] [INFO] results - CASE PASSED : campaign-/api/campaign/template/save
[2016-12-23 17:20:31.861] [INFO] results - CASE PASSED : campaign-/api/campaign/retrieve
[2016-12-23 17:20:34.016] [INFO] results - CASE PASSED : campaign-/api/campaign/audience/associate
[2016-12-23 17:20:36.376] [INFO] results - CASE PASSED : campaign-/api/campaign/message/send
[2016-12-23 17:20:38.768] [INFO] results - CASE PASSED : organization-/api/organization/save
[2016-12-23 17:20:40.956] [INFO] results - CASE PASSED : case-/api/case/save
[2016-12-23 17:20:43.487] [INFO] results - CASE PASSED : notification-/api/customlist/results
[2016-12-23 17:20:45.674] [INFO] results - CASE PASSED : task-/api/task/save
[2016-12-23 17:20:47.726] [INFO] results - CASE PASSED : memo-/api/memo/save
[2016-12-23 17:20:50.187] [INFO] results - CASE PASSED : opportunity-/api/opportunity/save
[2016-12-23 17:20:52.297] [INFO] results - CASE PASSED : opportunity-/api/opportunity/retrieve
[2016-12-23 17:20:54.453] [INFO] results - CASE PASSED : patient-/api/patient/create
[2016-12-23 17:20:56.529] [INFO] results - CASE PASSED : patient-/api/patient/retrieve
[2016-12-23 17:20:58.526] [INFO] results - CASE PASSED : workflowtemplate-/api/admin/rulesengine/templates/save
[2016-12-23 17:21:04.819] [INFO] results - CASE PASSED : message-/api/customlist/results
[2016-12-23 17:21:08.136] [INFO] results - CASE PASSED : message-/api/customlist/results
[2016-12-23 17:21:10.371] [INFO] results - CASE PASSED : userAuthentication-failedLoginCase-/auth/login
[2016-12-23 17:21:12.399] [INFO] results - CASE PASSED : accessControl-/api/admin/uac/tree/save
[2016-12-23 17:21:14.525] [INFO] results - CASE PASSED : accessControl-/api/admin/uac/tree/retrieve
[2016-12-23 17:21:16.606] [INFO] results - CASE PASSED : accessControl-/api/admin/uac/node/child/add
[2016-12-23 17:21:16.606] [INFO] results - CASE PASSED : accessControl-/api/admin/uac/node/child/add
[2016-12-23 17:21:18.684] [INFO] results - CASE PASSED : accessControl-/api/admin/uac/node/user/add
[2016-12-23 17:21:20.680] [INFO] results - CASE PASSED : accessControl-/api/admin/uac/node/organization/add
[2016-12-23 17:21:22.993] [INFO] results - CASE PASSED : calendar-/api/commcenter/calendar/list
[2016-12-23 17:21:25.102] [INFO] results - CASE PASSED : search-OBJECT SEARCH FUNCTION -> contact
[2016-12-23 17:21:27.227] [INFO] results - CASE PASSED : search-OBJECT SEARCH FUNCTION -> provider
[2016-12-23 17:21:29.281] [INFO] results - CASE PASSED : search-OBJECT SEARCH FUNCTION -> organization
[2016-12-23 17:21:31.218] [INFO] results - CASE PASSED : search-OBJECT SEARCH FUNCTION -> case
[2016-12-23 17:21:33.256] [INFO] results - CASE PASSED : search-OBJECT SEARCH FUNCTION -> task
[2016-12-23 17:21:35.354] [INFO] results - CASE PASSED : search-OBJECT SEARCH FUNCTION -> memo
[2016-12-23 17:21:37.436] [INFO] results - CASE PASSED : search-OBJECT SEARCH FUNCTION -> opportunity
[2016-12-23 17:21:39.465] [INFO] results - CASE PASSED : search-OBJECT SEARCH FUNCTION -> campaign
[2016-12-23 17:21:41.559] [INFO] results - CASE PASSED : genericOperations-Clear record function -> Organization
[2016-12-23 17:21:44.809] [INFO] results - CASE PASSED : genericOperations-Clear record function -> Activity
[2016-12-23 17:21:46.848] [INFO] results - CASE PASSED : genericOperations-Clear record function -> Activity
[2016-12-23 17:21:48.870] [INFO] results - CASE PASSED : genericOperations-Clear record function -> Activity
[2016-12-23 17:21:50.903] [INFO] results - CASE PASSED : genericOperations-Clear record function -> Campaign
[2016-12-23 17:21:53.106] [INFO] results - CASE PASSED : genericOperations-Clear record function -> Contact
[2016-12-23 17:21:55.159] [INFO] results - CASE PASSED : genericOperations-Clear record function -> Contact
[2016-12-23 17:21:57.175] [INFO] results - CASE PASSED : genericOperations-Clear record function -> Opportunity
[2016-12-23 17:21:59.335] [INFO] results - CASE PASSED : genericOperations-Clear record function -> Message
[2016-12-23 17:22:01.420] [INFO] results - CASE PASSED : genericOperations-Clear record function -> AccessControlTree
[2016-12-23 17:22:03.514] [INFO] results - CASE PASSED : genericOperations-Clear record function -> Workflowtemplate
[2016-12-23 17:22:07.535] [INFO] results - CASE PASSED : userAuthentication-check failed login-/auth/logout
[2016-12-23 17:22:09.665] [INFO] results - CASE PASSED : userAuthentication-user logout-/auth/logout
[2016-12-23 17:22:09.665] [INFO] results - 85 passing !
[2016-12-23 17:22:09.665] [INFO] results - 0 failing !
